ivl_uvm_tests/ivl_uvm_ovl_tests/ivl_uvm_ovl_window/fail_run.log
OVL_NOTE: V2.8: OVL_WINDOW initialized @ test.u_ovl_window.ovl_init_msg_t Severity: 1, Message: VIOLATION
test.u_clk_100 FREQ_IN_MHZ = 100.000 MHz
test.u_clk_100 PERIOD    = 10.000 ns
VCD info: dumpfile fail_dump.vcd opened for output.
Running ovl_window fail Test 

Setting rest_n to 0 and giving  fail conditions 

ovl_no_underflow does not fire at rst_n 

Time=20 Current value 	 rst_n:0 start_event: 1 test_expr :1  end_event: 0  

Time=30 Current value 	 rst_n:0 start_event: 0 test_expr :1  end_event: 0  

Time=50 Current value 	 rst_n:0 start_event: 0 test_expr :0  end_event: 0  

Time=60 Current value 	 rst_n:0 start_event: 0 test_expr :1  end_event: 0  

Time=80 Current value 	 rst_n:0 start_event: 0 test_expr :1  end_event: 1  

Setting rest_n to 1 and giving fail condition 

ovl_window fires if the test_expression is FALSE in between start_event and end_event 

Time=90 Current value 	 rst_n:1 start_event: 1 test_expr :1  end_event: 0  

Time=100 Current value 	 rst_n:1 start_event: 0 test_expr :1  end_event: 0  

C:/ivl_uvm/ivl_uvm_std_ovl//std_ovl_task.h : (40) 
0 : OVL_ERROR : OVL_WINDOW : VIOLATION : Test expression changed value during an open event window : severity 1 : test.u_ovl_window.ovl_error_t
Time=120 Current value 	 rst_n:1 start_event: 0 test_expr :0  end_event: 0  

Time=130 Current value 	 rst_n:1 start_event: 0 test_expr :1  end_event: 0  

Time=150 Current value 	 rst_n:1 start_event: 0 test_expr :1  end_event: 1  

Time=160 Current value 	 rst_n:1 start_event: 0 test_expr :0  end_event: 0  

ovl_window  fires when test_expression  contains X or Z
Time=180 Current value 	 rst_n:1 start_event: 1 test_expr :1  end_event: 0  

Time=190 Current value 	 rst_n:1 start_event: 0 test_expr :1  end_event: 0  

Time=210 Current value 	 rst_n:1 start_event: 0 test_expr :z  end_event: 0  

C:/ivl_uvm/ivl_uvm_std_ovl//std_ovl_task.h : (40) 
0 : OVL_ERROR : OVL_WINDOW : VIOLATION : test_expr contains X or Z : severity 1 : test.u_ovl_window.ovl_error_t
Time=220 Current value 	 rst_n:1 start_event: 0 test_expr :1  end_event: 0  

Time=240 Current value 	 rst_n:1 start_event: 0 test_expr :x  end_event: 0  

C:/ivl_uvm/ivl_uvm_std_ovl//std_ovl_task.h : (40) 
0 : OVL_ERROR : OVL_WINDOW : VIOLATION : test_expr contains X or Z : severity 1 : test.u_ovl_window.ovl_error_t
Time=250 Current value 	 rst_n:1 start_event: 0 test_expr :1  end_event: 1  

Time=260 Current value 	 rst_n:1 start_event: 0 test_expr :0  end_event: 0  

ovl_window  fires when start_event  contains X or Z
Time=280 Current value 	 rst_n:1 start_event: z test_expr :1  end_event: 0  

C:/ivl_uvm/ivl_uvm_std_ovl//std_ovl_task.h : (40) 
0 : OVL_ERROR : OVL_WINDOW : VIOLATION : start_event contains X or Z : severity 1 : test.u_ovl_window.ovl_error_t
Time=290 Current value 	 rst_n:1 start_event: x test_expr :1  end_event: 0  

C:/ivl_uvm/ivl_uvm_std_ovl//std_ovl_task.h : (40) 
0 : OVL_ERROR : OVL_WINDOW : VIOLATION : start_event contains X or Z : severity 1 : test.u_ovl_window.ovl_error_t
Time=300 Current value 	 rst_n:1 start_event: 0 test_expr :0  end_event: 0  

ovl_window  fires when end_event  contains X or Z
Time=320 Current value 	 rst_n:1 start_event: 1 test_expr :1  end_event: 0  

Time=330 Current value 	 rst_n:1 start_event: 0 test_expr :1  end_event: 0  

Time=350 Current value 	 rst_n:1 start_event: 0 test_expr :1  end_event: z  

C:/ivl_uvm/ivl_uvm_std_ovl//std_ovl_task.h : (40) 
0 : OVL_ERROR : OVL_WINDOW : VIOLATION : end_event contains X or Z : severity 1 : test.u_ovl_window.ovl_error_t
Time=360 Current value 	 rst_n:1 start_event: 0 test_expr :1  end_event: 0  

Time=380 Current value 	 rst_n:1 start_event: 1 test_expr :1  end_event: 0  

Time=390 Current value 	 rst_n:1 start_event: 0 test_expr :1  end_event: 0  

Time=410 Current value 	 rst_n:1 start_event: 0 test_expr :1  end_event: x  

C:/ivl_uvm/ivl_uvm_std_ovl//std_ovl_task.h : (40) 
0 : OVL_ERROR : OVL_WINDOW : VIOLATION : end_event contains X or Z : severity 1 : test.u_ovl_window.ovl_error_t
Time=420 Current value 	 rst_n:1 start_event: 0 test_expr :1  end_event: 0  

ovl_window fail Test ended 

ivl_uvm_ovl_window_fail.sv:112: $finish called at 440000000 (1fs)
