ivl_uvm_tests/ivl_uvm_ovl_tests/ivl_uvm_ovl_odd_parity/pass_run.log
OVL_NOTE: V2.8: OVL_ODD_PARITY initialized @ test.u_chk_with_exprsn.ovl_init_msg_t Severity: 1, Message: VIOLATION
OVL_NOTE: V2.8: OVL_ODD_PARITY initialized @ test.u_ovl_odd_parity.ovl_init_msg_t Severity: 1, Message: VIOLATION
test.u_clk_100 FREQ_IN_MHZ = 100.000 MHz
test.u_clk_100 PERIOD    = 10.000 ns
VCD info: dumpfile pass_dump.vcd opened for output.
Running OVL_odd_parity pass Test 

Setting rest_n to 0 and giving different fail values for test expresion 

ovl_odd_parity does not fire at rst_n 

Time=0 Current value 	 rst_n:0 test_expr :0000 

Time=10 Current value 	 rst_n:0 test_expr :0011 

Time=20 Current value 	 rst_n:0 test_expr :0101 

Time=30 Current value 	 rst_n:0 test_expr :0110 

Time=40 Current value 	 rst_n:0 test_expr :1001 

Time=50 Current value 	 rst_n:0 test_expr :1010 

Time=60 Current value 	 rst_n:0 test_expr :1100 

Setting rest_n to 1 and giving different values for test expresion 

ovl_odd_parity does not FIRE when test_exp exhibits odd parity 

Time=70 Current value 	 rst_n:1 test_expr :0001 

Time=80 Current value 	 rst_n:1 test_expr :0010 

Time=90 Current value 	 rst_n:1 test_expr :0100 

Time=100 Current value 	 rst_n:1 test_expr :0111 

Time=110 Current value 	 rst_n:1 test_expr :1000 

Time=120 Current value 	 rst_n:1 test_expr :1011 

Time=130 Current value 	 rst_n:1 test_expr :1101 

Time=140 Current value 	 rst_n:1 test_expr :1110 

 OVL_odd_parity pass Test ended 

ivl_uvm_ovl_a_odd_parity_pass.sv:76: $finish called at 160000000 (1fs)
